…
# specify table
tall_table <- 
  url %>% 
  read_html() %>% 
  html_nodes(xpath = ('//*[@id="mw-content-text"]/div[1]/table[2]')) %>% 
  html_table()
               
tall_table <- 
  tall_table[[1]] %>% 
  janitor::clean_names()

tall_table %>% 
  select(c(metric, lifespan_age_at_death, imperial, note))

## # A tibble: 143 × 4
##    metric   lifespan_age_at_death imperial     note                             
##    <chr>    <chr>                 <chr>        <chr>                            
##  1 272 cm   1918–1940 (22)        8 ft 11.1 in Tallest human in recorded histor…
##  2 269 cm   1989–2015 (26)        8 ft 10 in   Was not measured officially by G…
##  3 268 cm   1986–2007 (21)        8 ft 9.5 in  Was not measured officially by G…
##  4 267 cm   1868–1905 (37)        8 ft 9 in    Second tallest male in recorded …
##  5 263.5 cm 1932–1969 (37)        8 ft 7.75 in 8 ft 0 in (244 cm) standing heig…
##  6 262 cm   1924–1943 (18)        8 ft 7 in    Billed at 8 ft 7 in (262 cm).[16]
##  7 262 cm   1906–1952 (46)        8 ft 7 in    Jacob Rheuben Ehrlich. American …
##  8 258 cm   1860–1887 (27)        8 ft 5.5 in  Tallest human in European histor…
##  9 258 cm   1970–2014 (44)        8 ft 5.5 in  Not officially recognized by Gui…
## 10 257 cm   1984–2019 (34)        8 ft 5.25 in After he died he was measured po…
## # … with 133 more rows
…
Next, we need to separate the feet and inches values so we can convert to a value like XX.XX inches, allowing us to do numerical manipulation on the value. The pattern in imperial is now “X ft XX in”, where the inches are expressed in different ways (1/2, 0.5). Let’s do inches first. We want to extract out the number that lies between “ft” and “in”. For this, we can use “look around” regexps, that find a pattern preceding or following another pattern. Roughly speaking: 

- “a(?=c)” means “a” followed by “c” 

- “(?<=b)a” means “a” preceded by “b” 

- Note that “[:graph:]” means any letter, number, or punctuation, and the asterisk after it means repeated zero ore more times.

# demo
tall_table_4 %>% 
  mutate(inches = str_extract(imperial, "(?<=ft)\\s[:graph:]*\\s(?=in)")) %>% 
  select(imperial, inches) 

## # A tibble: 143 × 2
##    imperial     inches  
##    <chr>        <chr>   
##  1 8 ft 11.1 in " 11.1 "
##  2 8 ft 10 in   " 10 "  
##  3 8 ft 9.5 in  " 9.5 " 
##  4 8 ft 9 in    " 9 "   
##  5 8 ft 7.75 in " 7.75 "
##  6 8 ft 7 in    " 7 "   
##  7 8 ft 7 in    " 7 "   
##  8 8 ft 5.5 in  " 5.5 " 
##  9 8 ft 5.5 in  " 5.5 " 
## 10 8 ft 5.25 in " 5.25 "
## # … with 133 more rows
…
Now we can do a fun exercise - we can check our work by directly converting ht_cm to height in feet (one foot is 30.48 cm), and seeing if all the wrangling we underwent with inches and feet gave us correct numbers.

# test whether calculated value matches string extract
test <-
  tall_table_8 %>% 
  select(ht_ft, ht_cm) %>% 
  mutate(check_ht = round(ht_ft*30.48, digits = 2))

test

## # A tibble: 143 × 3
##    ht_ft ht_cm check_ht
##    <dbl> <dbl>    <dbl>
##  1  8.92  272      272.
##  2  8.83  269      269.
##  3  8.79  268      268.
##  4  8.75  267      267.
##  5  8.65  264.     264.
##  6  8.58  262      262.
##  7  8.58  262      262.
##  8  8.46  258      258.
##  9  8.46  258      258.
## 10  8.44  257      257.
## # … with 133 more rows

We’re not dead on, but we got pretty close. The reason for the error has a lot more to do with rounding in the original table than our text-parsing. And after all that work, our data-frame is tidy-ish.

2. The lifespan_age_at_death Variable

This is what the lifespan_age_at_death column looks like now:

tall_table_8 %>% 
  select(lifespan_age_at_death)

## # A tibble: 143 × 1
##    lifespan_age_at_death
##    <chr>                
##  1 1918–1940 (22)       
##  2 1989–2015 (26)       
##  3 1986–2007 (21)       
##  4 1868–1905 (37)       
##  5 1932–1969 (37)       
##  6 1924–1943 (18)       
##  7 1906–1952 (46)       
##  8 1860–1887 (27)       
##  9 1970–2014 (44)       
## 10 1984–2019 (34)       
## # … with 133 more rows
…
- \\d* means any quantity of consecutive digits 

- (?=–) means something followed by a hyphen 

- (?<=–) means something following a hyphen 

tall_table_10 <- 
  tall_table_9 %>% 
  mutate(birth_year = str_extract(lifespan_age_at_death, "\\d*(?=–)"), 
         death_year = str_extract(lifespan_age_at_death, "(?<=–)\\d*"))

tall_table_10

## # A tibble: 143 × 9
##    country       ht_cm ht_ft name          note  lifes…¹ age_a…² birth…³ death…⁴
##    <chr>         <dbl> <dbl> <chr>         <chr> <chr>   <chr>   <chr>   <chr>  
##  1 United States  272   8.92 Robert Wadlow Tall… 1918–1… 22      1918    1940   
##  2 Thailand       269   8.83 Pornchai Sao… Was … 1989–2… 26      1989    2015   
##  3 India          268   8.79 Vikas Uppal   Was … 1986–2… 21      1986    2007   
##  4 United States  267   8.75 John Rogan    Seco… 1868–1… 37      1868    1905   
##  5 United States  264.  8.65 John F. Carr… 8 ft… 1932–1… 37      1932    1969   
##  6 United States  262   8.58 Willie Camper Bill… 1924–1… 18      1924    1943   
##  7 United States  262   8.58 Jack Earle    Jaco… 1906–1… 46      1906    1952   
##  8 Austria        258   8.46 Franz Winkel… Tall… 1860–1… 27      1860    1887   
##  9 Ukraine        258   8.46 Leonid Stadn… Not … 1970–2… 44      1970    2014   
## 10 Vietnam        257   8.44 Hồ Văn Trung  Afte… 1984–2… 34      1984    2019   
## # … with 133 more rows, and abbreviated variable names ¹​lifespan_age_at_death,
## #   ²​age_at_death, ³​birth_year, ⁴​death_year
…
# check
tall_table_12 %>% 
  select(lifespan_age_at_death, birth_year, death_year) %>% 
  filter(is.na(birth_year) | is.na(death_year))

## # A tibble: 65 × 3
##    lifespan_age_at_death birth_year death_year
##    <chr>                      <dbl>      <dbl>
##  1 born 1982                   1982         NA
##  2 born 1982                   1982         NA
##  3 born 1987                   1987         NA
##  4 born 1983                   1983         NA
##  5 1835–?                      1835         NA
##  6 born 1987                   1987         NA
##  7 born 1994                   1994         NA
##  8 born 1999                   1999         NA
##  9 fl. ?–1596                    NA       1596
## 10 born 1966                   1966         NA
## # … with 55 more rows

3. The note Variable

Finally, we’ll clean up note by removing anything between brackets.

# clean note variable
tall_table_13 <- 
  tall_table_12 %>% 
  mutate(note = str_remove_all(note, "\\[\\d*\\]"))

tall_table_13

## # A tibble: 142 × 9
##    country       ht_cm ht_ft name          note  lifes…¹ age_a…² birth…³ death…⁴
##    <chr>         <dbl> <dbl> <chr>         <chr> <chr>   <chr>     <dbl>   <dbl>
##  1 United States  272   8.92 Robert Wadlow Tall… 1918–1… 22         1918    1940
##  2 Thailand       269   8.83 Pornchai Sao… Was … 1989–2… 26         1989    2015
##  3 India          268   8.79 Vikas Uppal   Was … 1986–2… 21         1986    2007
##  4 United States  267   8.75 John Rogan    Seco… 1868–1… 37         1868    1905
##  5 United States  264.  8.65 John F. Carr… 8 ft… 1932–1… 37         1932    1969
##  6 United States  262   8.58 Willie Camper Bill… 1924–1… 18         1924    1943
##  7 United States  262   8.58 Jack Earle    Jaco… 1906–1… 46         1906    1952
##  8 Austria        258   8.46 Franz Winkel… Tall… 1860–1… 27         1860    1887
##  9 Ukraine        258   8.46 Leonid Stadn… Not … 1970–2… 44         1970    2014
## 10 Vietnam        257   8.44 Hồ Văn Trung  Afte… 1984–2… 34         1984    2019
## # … with 132 more rows, and abbreviated variable names ¹​lifespan_age_at_death,
## #   ²​age_at_death, ³​birth_year, ⁴​death_year
…
